Solution No. :1
 W . . . .
 . . W . .
 . . . . W
 . W . . .
 . . . W .

Solution No. :2
 W . . . .
 . . . W .
 . W . . .
 . . . . W
 . . W . .

Solution No. :3
 . W . . .
 . . . W .
 W . . . .
 . . W . .
 . . . . W

Solution No. :4
 . W . . .
 . . . . W
 . . W . .
 W . . . .
 . . . W .

Solution No. :5
 . . W . .
 W . . . .
 . . . W .
 . W . . .
 . . . . W

Solution No. :6
 . . W . .
 . . . . W
 . W . . .
 . . . W .
 W . . . .

Solution No. :7
 . . . W .
 W . . . .
 . . W . .
 . . . . W
 . W . . .

Solution No. :8
 . . . W .
 . W . . .
 . . . . W
 . . W . .
 W . . . .

Solution No. :9
 . . . . W
 . W . . .
 . . . W .
 W . . . .
 . . W . .

Solution No. :10
 . . . . W
 . . W . .
 W . . . .
 . . . W .
 . W . . .

END
