4	aaaa
1	abmm
1	abue
1	acfs
2	acyy
1	adoi
2	aelk
1	afim
2	afxw
1	agrc
1	ahcq
1	ahki
4	aiwu
1	akjg
1	akqy
1	alcm
2	alvs
1	amlc
2	anie
1	aofg
2	aouq
1	apnw
1	apzk
1	aqhc
4	arto
1	atga
1	atns
1	atzg
2	ausm
1	avhw
2	awey
1	axca
2	axrk
1	aykq
1	aywe
1	azdw
4	baqi
1	bccu
1	bckm
1	bcwa
2	bdpg
1	beeq
2	bfbs
1	bfyu
2	bgoe
1	bhhk
1	bhsy
1	biaq
4	bjnc
1	bkzo
1	blhg
1	blsu
2	bmma
1	bnbk
2	bnym
1	bovo
2	bpky
1	bqee
1	bqps
1	bqxk
4	bsjw
1	btwi
1	buea
1	bupo
2	bviu
1	bvye
2	bwvg
1	bxsi
2	byhs
1	bzay
1	bzmm
1	bzue
4	cbgq
1	cctc
1	cdau
1	cdmi
2	cefo
1	ceuy
2	cfsa
1	cgpc
2	chem
1	chxs
1	cijg
1	ciqy
4	ckdk
1	clpw
1	clxo
1	cmjc
2	cnci
1	cnrs
2	coou
1	cplw
2	cqbg
1	cqum
1	crga
1	crns
4	ctae
1	cumq
1	cuui
1	cvfw
2	cvzc
1	cwom
2	cxlo
1	cyiq
2	cyya
1	czrg
1	dacu
1	dakm
4	dbwy
1	ddjk
1	ddrc
1	decq
2	devw
1	dflg
2	dgii
1	dhfk
2	dhuu
1	dioa
1	dizo
1	djhg
4	dkts
1	dmge
1	dmnw
1	dmzk
2	dnsq
1	doia
2	dpfc
1	dqce
2	dqro
1	drku
1	drwi
1	dsea
4	dtqm
1	dvcy
1	dvkq
1	dvwe
2	dwpk
1	dxeu
2	dybw
1	dyyy
2	dzoi
1	eaho
1	eatc
1	ebau
4	ecng
1	edzs
1	eehk
1	eesy
2	efme
1	egbo
2	egyq
1	ehvs
2	eilc
1	ejei
1	ejpw
1	ejxo
4	elka
1	emwm
1	enee
1	enps
2	eoiy
1	eoyi
2	epvk
1	eqsm
2	erhw
1	esbc
1	esmq
1	esui
4	eugu
1	evtg
1	eway
1	ewmm
2	exfs
1	exvc
2	eyse
1	ezpg
2	faeq
1	faxw
1	fbjk
1	fbrc
4	fddo
1	feqa
1	fexs
1	ffjg
2	fgcm
1	fgrw
2	fhoy
1	fima
2	fjbk
1	fjuq
1	fkge
1	fknw
4	fmai
1	fnmu
1	fnum
1	foga
2	fozg
1	fpoq
2	fqls
1	friu
2	frye
1	fsrk
1	ftcy
1	ftkq
4	fuxc
1	fwjo
1	fwrg
1	fxcu
2	fxwa
1	fylk
2	fzim
1	gafo
2	gauy
1	gboe
1	gbzs
1	gchk
4	gdtw
1	gfgi
1	gfoa
1	gfzo
2	ggsu
1	ghie
2	gifg
1	gjci
2	gjrs
1	gkky
1	gkwm
1	glee
4	gmqq
1	godc
1	goku
1	gowi
2	gppo
1	gqey
2	grca
1	grzc
2	gsom
1	gths
1	gttg
1	guay
4	gvnk
1	gwzw
1	gxho
1	gxtc
2	gymi
1	gzbs
2	gzyu
1	havw
2	hblg
1	hcem
1	hcqa
1	hcxs
4	heke
1	hfwq
1	hgei
1	hgpw
2	hhjc
1	hhym
2	hivo
1	hjsq
2	hkia
1	hlbg
1	hlmu
1	hlum
4	hngy
1	hotk
1	hpbc
1	hpmq
2	hqfw
1	hqvg
2	hrsi
1	hspk
2	hteu
1	htya
1	hujo
1	hurg
4	hwds
1	hxqe
1	hxxw
1	hyjk
2	hzcq
1	hzsa
2	iapc
1	ibme
2	icbo
1	icuu
1	idgi
1	idoa
4	ifam
1	igmy
1	iguq
1	ihge
2	ihzk
1	iiou
2	ijlw
1	ikiy
2	ikyi
1	ilro
1	imdc
1	imku
4	inxg
1	ipjs
1	iprk
1	iqcy
2	iqwe
1	irlo
2	isiq
1	itfs
2	itvc
1	iuoi
1	iuzw
1	ivho
4	iwua
1	iygm
1	iyoe
1	iyzs
2	izsy
1	jaii
2	jbfk
1	jccm
2	jcrw
1	jdlc
1	jdwq
1	jeei
4	jfqu
1	jhdg
1	jhky
1	jhwm
2	jips
1	jjfc
2	jkce
1	jkzg
2	jloq
1	jmhw
1	jmtk
1	jnbc
4	jono
1	jqaa
1	jqhs
1	jqtg
2	jrmm
1	jsbw
2	jsyy
1	jtwa
2	julk
1	jveq
1	jvqe
1	jvxw
4	jxki
1	jywu
1	jzem
1	jzqa
2	kajg
1	kayq
2	kbvs
1	kcsu
2	kdie
1	kebk
1	kemy
1	keuq
4	kghc
1	khto
1	kibg
1	kimu
2	kjga
1	kjvk
2	kksm
1	klpo
2	kmey
1	kmye
1	knjs
1	knrk
4	kpdw
1	kqqi
1	kqya
1	krjo
2	kscu
1	ksse
2	ktpg
1	kumi
2	kvbs
1	kvuy
1	kwgm
1	kwoe
4	kyaq
1	kznc
1	kzuu
1	lagi
2	lazo
1	lboy
2	lcma
1	ldjc
2	ldym
1	lers
1	lfdg
1	lfky
4	lgxk
1	lijw
1	liro
1	ljdc
2	ljwi
1	lkls
2	lliu
1	lmfw
2	lmvg
1	lnom
1	loaa
1	lohs
4	lpue
1	lrgq
1	lroi
1	lrzw
2	lstc
1	ltim
2	lufo
1	lvcq
2	lvsa
1	lwlg
1	lwwu
1	lxem
4	lyqy
1	madk
1	malc
1	mawq
2	mbpw
1	mcfg
2	mdci
1	mdzk
2	meou
1	mfia
1	mfto
1	mgbg
4	mhns
1	mjae
1	mjhw
1	mjtk
2	mkmq
1	mlca
2	mlzc
1	mmwe
2	mnlo
1	moeu
1	moqi
1	moya
4	mqkm
1	mrwy
1	mseq
1	msqe
2	mtjk
1	mtyu
2	muvw
1	mvsy
2	mwii
1	mxbo
1	mxnc
1	mxuu
4	mzhg
1	nats
1	nbbk
1	nbmy
2	ncge
1	ncvo
2	ndsq
1	neps
2	nffc
1	nfyi
1	ngjw
1	ngro
4	niea
1	njqm
1	njye
1	nkjs
2	nlcy
1	nlsi
2	nmpk
1	nnmm
2	nobw
1	novc
1	npgq
1	npoi
4	nrau
1	nsng
1	nsuy
1	ntgm
2	ntzs
1	nupc
2	nvme
1	nwjg
2	nwyq
1	nxrw
1	nydk
1	nylc
4	nzxo
1	obka
1	obrs
1	ocdg
2	ocwm
1	odlw
2	oeiy
1	ofga
2	ofvk
1	ogoq
1	ohae
1	ohhw
4	oiui
1	okgu
1	okom
1	olaa
2	oltg
1	omiq
2	onfs
1	oocu
2	oose
1	oplk
1	opwy
1	oqeq
4	orrc
1	otdo
1	otlg
1	otwu
2	ouqa
1	ovfk
2	owcm
1	owzo
2	oxoy
1	oyie
1	oyts
1	ozbk
4	panw
1	pcai
1	pcia
1	pcto
2	pdmu
1	pece
2	pezg
1	pfwi
2	pgls
1	phey
1	phqm
1	phye
4	pjkq
1	pkxc
1	pleu
1	plqi
2	pmjo
1	pmyy
2	pnwa
1	potc
2	ppim
1	pqbs
1	pqng
1	pquy
4	pshk
1	pttw
1	pubo
1	punc
2	pvgi
1	pvvs
2	pwsu
1	pxpw
2	pyfg
1	pyym
1	pzka
1	pzrs
4	qbee
1	qcqq
1	qcyi
1	qdjw
2	qedc
1	qesm
2	qfpo
1	qgmq
2	qhca
1	qhvg
1	qigu
1	qiom
4	qkay
1	qlnk
1	qlvc
1	qmgq
2	qmzw
1	qnpg
2	qomi
1	qpjk
2	qpyu
1	qqsa
1	qrdo
1	qrlg
4	qsxs
1	quke
1	qurw
1	qvdk
2	qvwq
1	qwma
2	qxjc
1	qyge
2	qyvo
1	qzou
1	raai
1	raia
4	rbum
1	rdgy
1	rdoq
1	reae
2	retk
1	rfiu
2	rgfw
1	rhcy
2	rhsi
1	rilo
1	rixc
1	rjeu
4	rkrg
1	rmds
1	rmlk
1	rmwy
2	rnqe
1	rofo
2	rpcq
1	rpzs
2	rqpc
1	rrii
1	rrtw
1	rsbo
4	rtoa
1	rvam
1	rvie
1	rvts
2	rwmy
1	rxci
2	rxzk
1	rywm
2	rzlw
1	safc
1	saqq
1	sayi
4	scku
1	sdxg
1	seey
1	seqm
2	sfjs
1	sfzc
2	sgwe
1	shtg
2	siiq
1	sjbw
1	sjnk
1	sjvc
4	slho
1	smua
1	snbs
1	snng
2	sogm
1	sovw
2	spsy
1	sqqa
2	srfk
1	sryq
1	sske
1	ssrw
4	suei
1	svqu
1	svym
1	swka
2	sxdg
1	sxsq
2	syps
1	szmu
2	tace
1	tavk
1	tbgy
1	tboq
4	tdbc
1	teno
1	tevg
1	tfgu
2	tgaa
1	tgpk
2	thmm
1	tijo
2	tiyy
1	tjse
1	tkds
1	tklk
4	tlxw
1	tnki
1	tnsa
1	todo
2	towu
1	tpme
2	tqjg
1	trgi
2	trvs
1	tsoy
1	ttam
1	ttie
4	tuuq
1	twhc
1	twou
1	txai
2	txto
1	tyiy
2	tzga
1	uadc
2	uasm
1	ubls
1	ubxg
1	ucey
4	udrk
1	ufdw
1	uflo
1	ufxc
2	ugqi
1	uhfs
2	uicu
1	uizw
2	ujpg
1	ukim
1	ukua
1	ulbs
4	umoe
1	uoaq
1	uoii
1	uotw
2	upnc
1	uqcm
2	uqzo
1	urwq
2	usma
1	utfg
1	utqu
1	utym
4	uvky
1	uwxk
1	uxfc
1	uxqq
2	uyjw
1	uyzg
2	uzwi
1	vatk
2	vbiu
1	vcca
1	vcno
1	vcvg
4	vehs
1	vfue
1	vgbw
1	vgnk
2	vhgq
1	vhwa
2	vitc
1	vjqe
2	vkfo
1	vkyu
1	vlki
1	vlsa
4	vnem
1	voqy
1	voyq
1	vpke
2	vqdk
1	vqsu
2	vrpw
1	vsmy
2	vtci
1	vtvo
1	vuhc
1	vuou
4	vwbg
1	vxns
1	vxvk
1	vygy
2	vzae
1	vzpo
2	wamq
1	wbjs
2	wbzc
1	wcsi
1	wddw
1	wdlo
4	weya
1	wgkm
1	wgse
1	whds
2	whwy
1	wimi
2	wjjk
1	wkgm
2	wkvw
1	wlpc
1	wmaq
1	wmii
4	wnuu
1	wphg
1	wpoy
1	wqam
2	wqts
1	wrjc
2	wsge
1	wtdg
2	wtsq
1	wulw
1	wuxk
1	wvfc
4	wwro
1	wyea
1	wyls
1	wyxg
2	wzqm
1	xafw
2	xbcy
1	xcaa
2	xcpk
1	xdiq
1	xdue
1	xebw
4	xfoi
1	xhau
1	xhim
1	xhua
2	xing
1	xjcq
2	xjzs
1	xkwu
2	xlme
1	xmfk
1	xmqy
1	xmyq
4	xolc
1	xpxo
1	xqfg
1	xqqu
2	xrka
1	xrzk
2	xswm
1	xtto
2	xuiy
1	xvce
1	xvns
1	xvvk
4	xxhw
1	xyui
1	xzca
1	xzno
2	yagu
1	yawe
2	ybtg
1	ycqi
2	ydfs
1	ydyy
1	yekm
1	yese
4	ygeq
1	yhrc
1	yhyu
1	yiki
2	yjdo
1	yjsy
2	ykqa
1	ylnc
2	ymcm
1	ymvs
1	ynhg
1	ynoy
4	ypbk
1	yqnw
1	yqvo
1	yrhc
2	ysai
1	ysps
2	ytmu
1	yujw
2	yuzg
1	yvsm
1	ywea
1	ywls
4	yxye
1	yzkq
1	yzsi
1	zadw
2	zaxc
1	zbmm
2	zcjo
1	zdgq
2	zdwa
1	zepg
1	zfau
1	zfim
4	zguy
1	zihk
1	zipc
1	zjaq
2	zjtw
1	zkjg
2	zlgi
1	zmdk
2	zmsu
1	znma
1	znxo
1	zofg
4	zprs
1	zree
1	zrlw
1	zrxk
2	zsqq
1	ztga
2	zudc
1	zvae
2	zvpo
1	zwiu
1	zwui
1	zxca
4	zyom
