Sorted Array: 
-1040029
-1005018
-986579
-955535
-941087
-941009
-936781
-925410
-923241
-919469
-847510
-804250
-738438
-734414
-730838
-718591
-711560
-696773
-673709
-658231
-587707
-548441
-528239
-520737
-446245
-410696
-408605
-389639
-326874
-317207
-312075
-306728
-306187
-291409
-275784
-271052
-258583
-222634
-222365
-217650
-208650
-208267
-179373
-159163
-134501
-116728
-61443
-8513
-6766
-1107
2503
11598
64006
98097
122455
132372
160108
168646
187644
211347
251241
268616
286044
294813
343854
344808
365459
390702
432443
453838
552811
553400
612878
622555
630904
639904
662039
673952
686324
691495
693077
705913
711908
745016
752767
802104
804544
829865
834048
854144
866764
868784
890494
899997
900457
1002753
1024926
1040676
1043363
1047082
