Inside do_nothing1 for a = 0
Inside do_nothing2 for a = 1
Inside do_nothing1 for a = 1
Inside do_nothing2 for a = 2
Inside do_nothing1 for a = 2
Inside do_nothing2 for a = 3
Inside do_nothing1 for a = 3
Inside do_nothing2 for a = 4
Inside do_nothing1 for a = 4
Inside do_nothing2 for a = 5
Inside do_nothing1 for a = 5
Inside do_nothing2 for a = 6
Inside do_nothing1 for a = 6
Inside do_nothing2 for a = 7
Inside do_nothing1 for a = 7
Inside do_nothing2 for a = 8
Inside do_nothing1 for a = 8
Inside do_nothing2 for a = 9
Inside do_nothing1 for a = 9
Inside do_nothing2 for a = 10
Inside do_nothing1 for a = 10
fin
